description	term
The delegates arrived one after another.	代表们陆续到达。Dàibiǎo men lùxù dàodá.
pursue (or implement, follow) an independent foreign policy	执行独立自主的外交政策 zhíxíng dúlìzìzhǔ de wàijiāo zhèngcè
go straight ahead along the highway	沿着公路一直走 yán zhe gōnglù yīzhí zǒu
advance along the course charted by the Party	沿着党指引的方向前进 yán zhe dǎng zhǐyǐn de fāngxiàng qiánjìn
the brim of a jar	缸沿儿 gāng yánr
the edge of a ditch	沟沿儿 Gōu yánr
riverside	河沿 hé yán
a flat case; a shallow box	一只扁盒子 yī zhī biǎn hézi
the cardboard box was crushed.	纸箱子压扁了。 Zhǐ xiāngzi yā biǎn le.
as early as possible; at the earliest possible date	尽早 jǐn zǎo
Get the job done in three days at the outside.	尽着三天把事情办好。jǐn zhe sān tiān bǎ shìqing bàn hǎo.
Don't spend more than 100 yuan.	尽着一百块钱花。jǐn zhe yībǎi kuài qián huā.
He lives at the western end of the village.	他家住在村子尽西头。 Tā jiā zhù zài cūnzi jǐn xītóu.
This machine is called a crane.	这种机器叫做起重机。Zhèzhǒng jīqì jiàozuò qǐzhòngjī.
Our method of work may be described as "from the masses, to the masses. "	我们的工作方法叫做"从群众中来, 到群众中去。" Wǒmen de gōngzuò fāngfǎ jiàozuò "cóng qúnzhòng zhōng lái, dào qúnzhòng zhōng qù."
This is what I call stewing in your own juice. Nobody feels sorry for you.	你这叫做自作自受, 没人可怜你。 Nǐ zhè jiàozuò zì zuò zì shòu, méi rén kělián nǐ.
nominal independence	形式上的独立 xíngshìshang de dúlì
maintain formal diplomatic relations	在形式上保持外交关系 zài xíngshìshang bǎochí wàijiāo guānxi
Little by little, we began to get to know him.	渐渐地,我们就跟他熟起来了。jiànjiàn de, wǒmen jiù gēn tā shú qǐlai le.
bring efforts to bear on the right spot	把劲儿使在刀口上 Bǎ jìnr shǐ zài dāokǒu shàng
Use your money where it's needed most.	钱要花在刀口上。 Qián yào huā zài dāokǒu shàng.
further develop the friendly relations and cooperation between our two countries	进一步发展我们两国之间的友好合作关系jìnyībù fāzhǎn wǒmen liǎng guó zhījiān de yǒuhǎo hézuò guānxi
We all call him Lao Li.	我们都称他老李。 Wǒmen dōu chēng tā lǎo lǐ.
I'd like one kilo of apples, please.	给我称一公斤苹果。 Gěi wǒ chēng yī gōngjīn píngguǒ.
We endorse this decision.	我们拥护这个决定。 Wǒmen yōnghù zhège juédìng.
make the table steady	把桌子放稳 bǎ zhuōzi fàng wěn
She is steady and reliable in doing things.	她做事很稳。 Tā zuò shì hěn wěn.
be in a state of unconsciousness; be in a coma	处于昏迷状态 chǔyú hūnmí zhuàngtài
She went into a coma.	她昏迷过去了。 Tā hūnmí guòqu le.
Do you know this comrade?	这位同志你认得吗？ Zhè wèi tóngzhì nǐ rènde ma？
I can no longer recognize the place.	这地方我已经不认得了。 Zhè dìfang wǒ yǐjing bù rènde le.
Can you find your way home?	你认得回家的路吗？ Nǐ rènde huíjiā de lù ma？
try all possible means	想尽各种方法 Xiǎng jìn gèzhǒng fāngfǎ
do one's best; exert one's utmost effort	尽最大努力jìn zuì dà nǔlì shèhuìzhǔyì jìn yī fēn lìliang
beautiful language	优美的语言yōuměi de yǔyán
They say he is doing quite well there.	据说他在那里干得不错。jùshuō tā zài nàli gàn de bùcuò.
The accident was allegedly due to negligence.	这场事故据说是由于疏忽造成的。 Zhè cháng shìgù jùshuō shì yóuyú shūhu zàochéng de.
draw (or come to, reach) a conclusion	得出结论 déchū jiélùn
Don't jump to conclusions.	不要忙于下结论。 Bùyào mángyú xià jiélùn.
Whether this is feasible is still an open question.	这是否可行, 还不能下结论。 Zhè shì-fǒu kěxíng, hái bùnéng xià jiélùn.
This is our internal affair which brooks no outside interference.	这是我国内政, 不允许任何外来干涉。 Zhè shì wǒguó nèizhèng, bù yǔnxǔ rènhé wàilái gānshè.
This is a cultural heritage handed down from ancient times.	这是古代传下来的文化遗产。 Zhè shì gǔdài chuán xiàlai de wénhuà yíchǎn.
The old master passed all his skills on to his apprentices.	老师傅把他的技术全传给徒弟了。 Lǎoshīfu bǎ tā de jìshù quán chuán gěi túdi le.
The news spread quickly. or The news soon got around.	消息很快传开了。 Xiāoxi hěn kuài chuán kāi le.
He's the one who let out the secret.	这个秘密是他传出去的。 Zhège mìmì shì tā chuán chū qù de.
Copper conducts electricity.	铜传电。 Tóng chuán diàn.
summon a witness	传证人chuán zhèngrén
Mind that your children don't catch the flu.	小心别让你孩子传上流感。 Xiǎoxīn bié ràng nǐ háizi chuán shàng liúgǎn.
(or haul) a trunk out from under the bed	把箱子从床底下拖出来 Bǎ xiāngzi cóng chuáng dǐxia tuō chūlai
mop the floor	拖地板tuō dìbǎn
Don't delay any more, or it'll be too late.	再拖就太天了。 Zài tuō jiù tài tiān le.
This work has been dragging on far too long.	这件工作拖得太久了。 Zhè jiàn gōngzuò tuō de tài jiǔ le.
contend for leadership	争领导权zhēng lǐngdǎoquán
What are you arguing about?	你们在争什么？ Nǐmen zài zhēng shénme？
It's about an hour's journey.	大约一小时的路程。dàyuē yī xiǎoshí de lùchéng.
The light is dim.	光很暗。guāng hěn àn.
The surface of this table is smooth.	这个桌子面儿很光。 Zhège zhuōzi miànr hěn guāng.
All his money is gone.	他的钱都光了。 Tā de qián dōu guāng le.
The ink's used up	墨水用光了。 Mò shuǐ yòng guāng le.
Don't walk around barefoot.	别光着脚走。 Bié guāng zhe jiǎo zǒu.
be stripped to the waist	光着膀子guāng zhe bǎngzi
She just smiled and said nothing.	她光笑不说话。 Tā guāng xiào bù shuōhuà.
The good points of the novel may be summarized as follows.	这部小说的优点概括起来有以下几方面。 Zhè bù xiǎoshuō de yōudiǎn gàikuò qǐlai yǒu yǐxià jǐ fāngmiàn.
to sum up	概括起来说 gàikuò qǐlai shuō
to put it briefly	概括地说 gàikuò de shuō
Please give your views in broad outline.	请把你的看法概括地讲一讲。 Qǐng bǎ nǐ de kànfǎ gàikuò de jiǎng yī jiǎng.
lose consciousness	失去知觉 shīqù zhījué
lose confidence	失去信心 shīqù xìnxīn
get out of hand; get out of control	失去控制 shīqù kòngzhì
be bereft of all hope	失去一切希望 shīqù yīqiè xīwàng
as a whole; on the whole; by and large	整个说来 zhěnggè shuōlái
The Constitution stipulates (or provides) that women enjoy exactly the same rights as men.	宪法规定妇女享有与男子完全相同的权利。 Xiànfǎ guīdìng fùnǚ xiǎngyǒu yǔ nánzǐ wánquán xiāngtóng de quánlì.
within the fixed time	在规定的时间内 zài guīdìng de shíjiān nèi
a set quota	规定的指标 guīdìng de zhǐbiāo
I estimate that it will take three months to finish the work.	我估计这项工作要三个月才能完成。 Wǒ gūjì zhè xiàng gōngzuò yào sān ge yuè cái néng wánchéng.
I reckon he will come.	我估计他会来。 Wǒ gūjì tā huì lái.
make a clearheaded appraisal of the present situation	清醒地估计当前的形势 Qīngxǐng de gūjì dāngqián de xíngshì
We must take this possibility into account.	这种可能性我们必须估计到。 Zhèzhǒng kěnéngxìng wǒmen bìxū gūjì dào.
with one's back to the sun	背着太阳坐bèi zhe tàiyáng zuò sit
turn one's face away	把脸背过去 bǎ liǎn bèi guòqu
talk behind sb.'s back	背着人说话 bèi zhe rén shuōhuà
have nothing to hide from anyone	没有什么背人的事 méiyǒu shénme bèi rén de shì
The child smoked behind his parents' backs.	这孩子背着父母抽烟。 Zhè háizi bèi zhe fùmǔ chōuyān.
It is an out-of-the-way place. or That place is off the beaten track.	那地方很背。 Nà dìfang hěn bèi.
She has all the time in the world.	她有的是时间。 Tā yǒudeshì shíjiān.
pat him on the shoulder	拍拍他的肩膀 pāi tā de jiānbǎng
pat one's clothes to get the dust off	拍掉身上的土 pāi diào shēnshang de tǔ
bounce a ball	拍球 pāi qiú
four beats in (or to ) a bar	一小节四拍 yī xiǎojié sì pāi
This novel has been made into a film.	这部小说已拍成电影了。 Zhè bù xiǎoshuō yǐ pāi chéng diànyǐng le.
mix things up	混在一起 hùn zài yīqǐ
They're two entirely different matters; don't mix them up.	这是两码事, 不要搞混了。 Zhè shì liǎng mǎ shì, bùyào gǎo hùn le.
can hardly make a living	连口饭都混不上 Lián kǒu fàn dōu hùn bù shàng
be quite familiar with them	同他们混得很熟 Tóng tāmen hùn de hěn shú
establish diplomatic relations	建立外交关系 jiànlì wàijiāo guānxi
take a message to him	给他递个口信 Gěi tā dì ge kǒuxìn
What's his role in this play?	他在这出戏里演哪个角儿？ Tā zài zhè chū xì lǐ yǎn nǎge jué r？
We should not judge things simply by their appearance; we must grasp their essence.	看事情不要只看现象, 要看本质。 Kàn shìqing bùyào zhǐ kàn xiànxiàng, yào kàn běnzhì.
This film has a strong appeal to the audience.	这部电影对观众很有吸引力。 Zhè bù diànyǐng duì guānzhòng hěn yǒu xīyǐn lì.
parties signatory to the agreement	签订协定的各方qiāndìng xiédìng de gè fāng the
Go to court and sue him.	到法院去告他。 Dào fǎyuàn qù gào tā.
Don't speak in such abstract terms.	不要这样抽象地谈问题。 Bù yào zhèyàng chōuxiàng de tán wèntí.
It's thundering.	打雷了。 Dǎ léi le.
That's a shrewd move.	这一着厉害。 Zhè yī zhāo lìhai.
He's at the end of his tether.	他没着儿了。 Tā méi zhāo r le.
That was really a brilliant stroke (or move, idea) of yours.	你这一着可真高。 Nǐ zhè yī zhāo kě zhēn gāo.
The two brothers look alike.	兄弟俩面貌相似。 Xiōng-dì liǎ miànmào xiāngsì.
hold a tray on one's palm	托着盘子 tuō zhe pánzi
Let's leave the matter to her.	这事就托给她吧。 Zhè shì jiù tuō gěi tā ba.
The two sides discussed a wide range of subjects.	双方会谈的内容十分广泛。 Shuāngfāng huìtán de nèiróng shífēn guǎngfàn.
gather students' opinions on teaching	征求学生对教学的意见 zhēngqiú xuésheng duì jiàoxué de yìjian
The rooms are not big but they're very cosy.	房间不大, 但很舒适。 Fángjiān bù dà, dàn hěn shūshì.
He hasn't been coming around much recently.	他最近不大来。 Tā zuìjìn bùdà lái.
I don't eat fish often. or I'm not too keen on fish.	我不大吃鱼。 Wǒ bùdà chī yú.
Your shoelace has come loose.	你的鞋带松了。 Nǐ de xiédài sōng le.
The rope is too slack.	绳子太松了。 Shéngzi tài sōng le.
loosen the screw a little bit	松一松螺丝 sōng yī sōng luósī
be better off	现在手头松些 xiànzài shǒutóu sōng xiē
He said it would snow, and sure enough it did.	他说要下雪, 果然就下了。 Tā shuō yào xiàxuě, guǒrán jiù xià le.
If that's really the way things are, there should be no difficulty.	事情果然是那样, 那就好办了。 Shìqing guǒrán shì nàyàng, nà jiù hǎo bàn le.
He wanted to hit me, but I dodged and he missed.	他要打我, 我一闪, 他没打着。 Tā yào dǎ wǒ, wǒ yī shǎn, tā méi dǎ zhe.
sprain one's back	闪了腰 shǎn le yāo
The light flashed and then went out.	灯一闪就灭了。 Dēng yī shǎn jiù miè le.
Do be careful!	千万要小心啊! qiānwàn yào xiǎoxīn a!
Train fares are rising again.	火车票又涨了。 Huǒchēpiào yòu zhǎng le.
the main trend in the world today	当前世界的主要倾向 dāngqián shìjiè de zhǔyào the current (or present) international situation qīngxiàng /当前的国际形势 dāngqián de guójì xíngshì
pick out the best tomatoes	把最好的西红柿拣出来 bǎ zuì hǎo de xīhóngshì jiǎn chūlai
draw a lesson (or moral) from sth. ; take warning from sth.	吸取教训 xīqǔ jiàoxun
He gave his son a lecture.	他教训了儿子一顿。 Tā jiàoxun le érzi yī dùn.
May everything turn out as you wish.	祝万事如意。 Zhù wànshì rúyì.
You can't expect everything to turn out as you wish.	万事很难如意。 Wàn shì hěn nán rúyì. This time he got exactly what he wanted.
Only by relying on the masses can you do your work well.	只有依靠群众, 才能做好工作。zhǐyǒu yīkào qúnzhòng, cái néng zuò hǎo gōngzuò.
This is the only path up the mountain.	要上山, 只有这一条路。 Yào shàngshān, zhǐyǒu zhè yī tiáo lù.
arrange the tables in an orderly way	把桌子摆齐 Bǎ zhuōzi bǎi qí
be evenly trimmed	剪得很齐 jiǎn de hěn qí
These two chopsticks are not of equal (or uniform) length.	这两根筷子长短不齐。 Zhè liǎng gēn kuàizi chángduǎn bù qí.
The water has risen to the level of the river banks.	水涨得齐了岸。 Shuǐ zhǎng de qí le àn.
draw a line along the edge	齐着边儿画一道线 qí zhe biānr huà yī dào xiàn
He has become even more reticent since then.	从此, 他变得更沉默了。 Cóngcǐ, tā biàn de gèng chénmò le.
After a moment's silence he went on.	他沉默了一会儿又继续说下去。 Tā chénmò le yīhuìr yòu jìxù shuō xiàqu.
I'm very grateful for your help.	很感激你给我的帮助。 Hěn gǎnjī nǐ gěi wǒ de bāngzhù.
These cultural relics are well preserved.	这批文物保存得很完好。 Zhè pī wénwù bǎocún de hěn wánhǎo.
ratify a treaty	批准条约 pīzhǔn tiáoyuē
The Party committee granted their request.	党委批准了他们的请求。 Dǎngwěi pīzhǔn le tāmen de qǐngqiú.
insert the plug in a socket; plug in	把插头插上 Bǎ chātóu chā shàng put one's hands in one's pockets
He talked on and on and nobody else could get a word in.	他说个没完, 别人半句话也插不进。 Tā shuō ge méi wán, biéren bàn jù huà yě chā bù jìn.
There were two red lanterns hanging over the door.	门前吊着两盏红灯。 Mén qián diào zhe liǎng zhǎn hóngdēng.
plait one's hair	编辫子biān biànzi
Put him in our group.	把他编在我们组吧。 Bǎ tā biān zài wǒmen zǔ ba.
edit a magazine; work in the editorial department of a magazine	编杂志 biān zázhì
write a play	编剧本biān jùběn
compose songs for children	编儿童歌曲biān értóng gēqǔ
He made the whole thing up.	这事儿是他编出来的。 Zhè shìr shì tā biān chūlai de.
walk upstairs with one's hand on the banisters	扶着栏杆上楼fú zhe lángān shànglóu
He's a rather careless fellow.	他这个人做事比较马虎。 Tā zhège rén zuò shì bǐjiào mǎhu.
This snow has come at the right time.	这场雪很及时。Zhè cháng xuě hěn jíshí.
Tonight there will be storm force winds. We must notify the fishermen without delay.	今晚有暴风, 要及时报告渔民。 Jīnwǎn yǒu bàofēng, yào jíshí bàogào yúmín.
build a socialism with Chinese characteristics	建设具有中国特色的社会主义 Jiànshè jùyǒu Zhōngguó tèsè de shèhuìzhǔyì
He gave the name of the chief culprit.	他供出了主犯的名字。 Tā gòng chū le zhǔfàn de míngzi.
No confession was forthcoming during the lengthy interrogation.	问了半天也问不出供来。 Wèn le bàn tiān yě wèn bù chū gòng lái.
You've mistaken my meaning.	你误会了我的意思。 Nǐ wùhuì le wǒ de yìsi. You must have misunderstood. or You must be mistaken. 你一定是搞误会了。 Nǐ yīdìng shì gǎo wùhuì le.
delimit a boundary	划界 huà jiè
determine class status	划成分 huà chéngfèn
be branded as a Rightist	划为右派 huà wèi yòupài
transfer money	划款 huà kuǎn
He assigned the experimental plot to that group.	他把试验田划给这个小组负责。 Tā bǎ shìyàntián huà gěi zhège xiǎozǔ fùzé.
enjoy public health services	享受公费医疗xiǎngshòu gōngfèi yīliáo
The more he thought the more confused he became.	他越想越糊涂。 Tā yuè xiǎng yuè hútu.
How careless of me to have left the letter at home.	我真糊涂, 把信忘在家里了。 Wǒ zhēn hútu, bǎ xìn wàng zài jiālǐ liǎo.
The truck bumped along the dirt road.	卡车在土路上颠簸着前进。 Kǎchē zài tǔlù shàng diānbǒ zhe qiánjìn.
As the wind grew stronger, the boat was tossed about by the waves.	风更大了, 船身颠簸起来。 Fēng gèng dà le, chuánshēn diānbǒ qǐlai.
I'll catch up with you no matter how fast you run.	凭你跑多快, 我也赶得上。píng nǐ pǎo duō kuài, wǒ yě gǎn de shàng.
pernicious malaria	恶性疟疾 èxìng nüèji
Let's leave the matter to her.	这事就托给她吧。 Zhè shì jiù tuō gěi tā ba. I'd like you to take something to him.
Don't just think of yourself.	你别只顾自己。 Nǐ bié zhǐ gù zìjǐ. You've got so many things to attend to. Can you manage all by yourself? 这么多事你一个人顾得过来吗？ Zhème duō shì nǐ yī ge rén gù de guòlai ma？
The doctor immediately attended to the emergency case without stopping for a meal.	医生顾不得吃饭就去抢救病人。 Yīshēng gù bude chīfàn jiù qù qiǎngjiù bìngrén.
Why are you in such a hurry?	你干吗这样急急忙忙的？ Nǐ gànmá zhèyàng jíjímángmáng de？
a durable pair of shoes	一双结实的鞋子 Yī shuāng jiēshi de xiézi
This is a very solid table.	这张桌子很结实。 Zhè zhāng zhuōzi hěn jiēshi.
Tie it fast.	拴结实点儿。 Shuān jiēshi diǎnr.
Paintbrush	油漆刷yóuqī shuā
brush shoes	刷鞋shuā xié
scrub the floor	刷地板 shuā dìbǎn
paste up posters	刷标语 shuā biāoyǔ
That team was not eliminated until the semifinals.	那个队直到半决赛才给刷下来。 Nà ge duì zhídào bànjuésài cái gěi shuā xiàlai.
My opinion is contrary to yours (or is just the opposite of yours).	我的意思跟你正相反。 Wǒ de yìsi gēn nǐ zhèng xiāngfǎn.
The result turned out contrary to our expectations.	结果与我们的愿望恰好相反。 Jiéguǒ yǔ wǒmen de yuànwàng qiàhǎo xiāngfǎn.
They drove off in opposite directions.	他们朝着相反的方向开走了。 Tāmen cháozhe xiāngfǎn de fāngxiàng kāi zǒu le.
He and his brother had contrary points of view on politics.	他跟他弟弟对政治持相反的观点。 Tā gēn tā dìdi duì zhèngzhì chí xiāngfǎn de guāndiǎn.
Far from being best friends, they are bitter enemies.	他们根本不是好朋友, 相反, 是死对头。 Tāmen gēnběn bù shì hǎo péngyou, xiāngfǎn, shì sǐduìtou.
regardless (or irrespective) of sex and age	不论性别年龄 bùlùn xìngbié niánlíng Whether he comes or not, we'll have to do it.
Language is the means by which people communicate with each other.	语言是人们交际的工具。 Yǔyán shì rénmen jiāojì de gōngjù.
She has a large circle of acquaintances.	她交际很广。 Tā jiāojì hěn guǎng.
She is very good at socializing (or is a good mixer) and knows quite a few people.	她善于交际, 认识不少人。 Tā shànyú jiāojì, rènshi bùshǎo rén.
The money was hidden in a trunk.	钱藏在箱子里。 Qián cáng zài xiāngzi lǐ. This chap can't keep anything to himself.
We can store a lot of things in the attic.	阁楼上可以藏好多东西。 Gélóu shàng kěyǐ cáng hǎo duō dōngxi.
A reservoir has many uses.	水库的用处很多。 Shuǐkù de yòngchu hěn duō.
Each of the two things has its own use.	这两件东西, 各有各的用处。 Zhè liǎng jiàn dōngxi, gè yǒu gè de yòngchu.
What's the use (or good) of complaining?	抱怨有什么用处？ Bàoyuàn yǒu shénme yòngchu？
Don't throw it away; it may come in handy.	不要扔掉, 将来会有用处。 Bùyào rēngdiào, jiānglái huì yǒu yòngchu.
rob a bank	抢银行 qiǎng yínháng
He snatched away the letter.	他把信抢了过去。 Tā bǎ xìn qiǎng le guòqu.
scramble for the ball	抢球 qiǎng qiú
The children jostled with each other for the first place in line.	孩子们抢着要排第一个。 Háizi men qiǎng zhe yào pái dì-yī ge.
scrape the bottom of the pot	把锅底一抢 Bǎ guōdǐ yī qiǎng
sharpen kitchen knives	抢菜刀 qiǎng càidāo
He fell and scraped his knee.	他摔了一跤, 膝盖上抢去了一块皮。 Tā shuāi le yī jiāo, xīgài shàng qiǎng qù le yī kuài pí.
This is a formidable project.	这个工程非常艰巨。 Zhège gōngchéng fēicháng jiānjù.
a moving scene	动人的情景 dòngrén de qíngjǐng
a touching story	动人的故事 dòngrén de gùshi
herd the sheep into the pens	把羊群圈起来 bǎ yángqún juān qǐlai
Don't shut yourself up in your study.	别老圈在书房里。 Bié lǎo juān zài shūfáng lǐ.
The prisoners were locked up.	犯人都圈起来了。 Fànrén dōu juān qǐlai le.
controversies over differing opinions	不同意见的争论 bùtóng yìjian de zhēnglùn
a heated dispute	激烈的争论 jīliè de zhēnglùn
the point at issue	争论之点 zhēnglùn zhī diǎn
free contention among different schools in science	科学上不同学派的自由争论 kēxué shàng bùtóng xuépài de zìyóu zhēnglùn
look into matters with an open mind	虚心体察情况 xūxīn tǐchá qíngkuàng
listen to people's criticisms with an open mind	虚心听取别人的意见 xūxīn tīngqǔ biéren de yìjian
Modesty helps one to go forward, whereas conceit makes one lag behind.	虚心使人进步, 骄傲使人落后。xūxīn shǐ rén jìnbù, jiāo'ào shǐ rén luòhòu.
We'll go even if it rains.	哪怕天气不好也要去。nǎpà tiānqì bù hǎo yě yào qù.
We should not waste even a single grain of rice.	哪怕是一粒米也不应该浪费。nǎpà shì yī lì mǐ yě bù yīnggāi làngfèi.
However great the difficulties may be, we can overcome them.	哪怕是再大的困难我们也能克服。nǎpà shì zài dà de kùnnan wǒmen yě néng kèfú.
broad-shouldered	宽肩膀 kuān jiānbǎng
have a broad outlook	眼界宽 yǎnjiè kuān
have a narrow outlook	宽不广 kuān bù guǎng
widen one's field of vision; broaden one's horizon	扩大宽 kuòdà kuān
The China trip was a real eye-opener to me.	这次访华, 大开宽。 Zhècì fǎngHuá, dà kāi kuān.
This river is one li wide.	这条河有一里宽。 Zhè tiáo hé yǒu yī lǐ kuān.
We were greatly relieved to learn that his condition was not serious.	听说他的病情并不严重, 我们的心就宽多了。 Tīngshuō tā de bìngqíng bìng bù yánzhòng, wǒmen de xīn jiù kuān duō le.
Relax, don't worry so much. or Don't take it too hard.	把心放宽一点。 Bǎ xīn fang kuān yīdiǎn.
Can the deadline be extended a few more days?	限期能再宽几天吗？ Xiànqī néng zài kuān jǐ tiān ma？
He's much better off than before.	他手头比过去宽多了。 Tā shǒutóu bǐ guòqu kuān duō le.
partition a room into two	把一间屋隔成两间 bǎ yī jiān wū gé chéng liǎng jiān
The saplings should be five metres apart.	每棵树苗要隔开五米。 Měi kē shùmiáo yào gé kāi wǔ mǐ.
Come back in two days' time.	你隔两天再来吧。 Nǐ gé liǎng tiān zài lái ba.
go there every third week	隔两周去一次 gé liǎng zhōu qù yī cì
Please write on every other line.	请隔行写。 Qǐng gé háng xiě.
To be taken once every four hours.	隔四小时服一次。gé sì xiǎoshí fú yī cì.
constitute (or pose) a threat	构成威胁 gòuchéng wēixié
The Xisha Archipelago is formed of coral reefs.	西沙群岛是由珊瑚礁构成的。 Xī shā qúndǎo shì yóu shānhújiāo gòuchéng de.
I met her once several years ago.	几年前我曾见过她一面。 Jǐ nián qián wǒ céng jiàn guò tā yī miàn.
I've never heard of such a thing.	我未曾听说过这样的事。 Wǒ wèi céng tīngshuō guò zhèyàng de shì.
X-rays can pass through the human body and show inside pathological changes.	爱克斯光能透过肌体检查病变。 Àikèsīguāng néng tòu guò jītǐ jiǎnchá bìngbiàn.
Blood seeped out through the bandage.	血从绷带里透了出来。 Xuè cóng bēngdài lǐ tòu le chūlai.
These shoes are waterproof.	这双鞋不透水。 Zhè shuāng xié bù tòu shuǐ.
I only heard the fragmentary information he let out. Details are still unknown.	只听他透了一句半句的, 详细情况还不清楚。 Zhǐ tīng tā tòu le yī jù bàn jù de, xiángxì qíngkuàng hái bù qīngchu.
Little was revealed about the talks.	这次谈判, 一点情况也没透出来。 Zhè cì tánpàn, yīdiǎn qíngkuàng yě méi tòu chū lái.
I was stupid enough to have failed the first test.	我笨透了, 第一次测试都没通过。 Wǒ bèn tòu le, dì-yī cì cèshì dōu méi tōngguò.
be in a terrible fury	火透了 Huǒ tòu le
have an intimate knowledge of the subject; know the subject inside out	对问题了解得很透duì wèntí liǎojiě de hěn tòu
It was a real good soaker.	雨下透了。 Yǔ xià tòu le.
I can't make out what really is in his mind.	我猜不透他在想什么。 Wǒ cāi bù tòu tā zài xiǎng shénme.
A happy smile appeared on his face.	他脸上透出幸福的微笑。 Tā liǎnshàng tòu chū xìngfú de wēixiào.
This machine is modelled on one recently made in Shanghai.	这部机器是模仿上海的一种新产品制造的。 Zhè bù jīqì shì mófǎng Shànghǎi de yī zhǒng xīn chǎnpǐn zhìzào de.
imitate Lu Xun's style	模仿鲁迅的笔调 mófǎng Lǔ Xùn de bǐdiào
let go one's hold	把手撒开 bǎ shǒu sā kāi
be stung for five yuan	给敲去五块钱 gěi qiāo qù wǔ kuài qián
His pay has been raised, so we made him treat us to a dinner.	他提了工资, 我们敲了他一顿饭。 Tā tí le gōngzī, wǒmen qiāo le tā yī dùn fàn. The store overcharged me for the goods. 这家铺子卖这些东西给我时敲了我一下子。 Zhè jiā pùzi mài zhèxiē dōngxi gěi wǒ shí qiāo le wǒ yīxiàzi.
talk too much; be a regular chatterbox	嘴太碎 zuǐ tài suì
It looks as if it'll be windy tomorrow.	似乎明天要起风。sìhū míngtiān yào qǐ fēng.
When you go to the library, please return this book for me.	你去图书馆的时候, 顺便把我这本书还了吧。 Nǐ qù túshūguǎn de shíhou, shùnbiàn bǎ wǒ zhè běn shū huán le ba.
I mention this point now in passing and shall refer to it again.	这一点现在顺便提一下, 以后还会讲到。 Zhè yīdiǎn xiànzài shùnbiàn tí yī xià, yǐhòu hái huì jiǎng dào.
He felled his opponent.	他把对手击倒了。 Tā bǎ duìshǒu jī dǎo le.
He stumped me.	他把我问倒了。 Tā bǎ wǒ wèn dǎo le.
The cabinet collapsed.	内阁倒了。 Nèigé dǎo le.
The company went bankrupt.	这家公司倒了。 Zhè jiā gōngsī dǎo le.
He has lost his voice.	他的嗓子倒了。 Tā de sǎngzi dǎo le.
Weigh me out one kilo of pork.	给我约一公斤猪肉。 Gěi wǒ yāo yī gōngjīn zhūròu.
See how much it weighs.	约约多重。yāo yāo duō zhòng.
I've had nothing to do for the last couple of days.	我这两天闲着没事。 Wǒ zhè liǎng tiān ∼xián zhe méi shì.
Mother is always so busy; she's never been free for a single day.	妈妈老是这么忙, 没闲过一天。 Māma lǎo shì zhème máng, méi xián guò yī tiān.
a civilization (or culture) of long standing	悠久的文化 yōujiǔ de wénhuà
an age-old tradition	悠久的传统 yōujiǔ de chuántǒng
What are you hanging around here for?	你在这儿转来转去干什么？ Nǐ zài zhèr zhuàn lái zhuàn qù gàn shénme？
This is a light wine.	酒味很薄。 Jiǔwèi hěn báo.
poor land	薄地 báo dì
It's been almost ten days since he left.	他走了恐怕有十来天了。 Tā zǒu le kǒngpà yǒu shí lái tiān le.
I'm afraid he won't agree.	恐怕他不会同意。kǒngpà tā bù huì tóngyì.
I'm afraid this won't do.	这样做, 恐怕不行。 Zhèyàng zuò, kǒngpà bù xíng.
Have a pleasant journey. or Bon voyage.	祝你旅途愉快。 Zhù nǐ lǚtú yúkuài.
a vacant room	空房 kòng fáng
There are many vacant seats in the carriage.	车厢里空得很。 Chēxiāng lǐ kòng de hěn.
Leave a little more space between the rows.	各行之间多留点空儿。 Gè háng zhījiān duō liú diǎn kòngr.
Come over when you have time.	有空儿到我这儿来。 Yǒu kòngr dào wǒ zhèr lái. I'm busy today. Let's talk about it some other day. 今天没空, 改日再谈吧。 Jīntiān méi kòng, gǎirì zài tán ba.
We didn't get the notice until last night.	我们直到昨晚才接到通知。 Wǒmen zhídào zuówǎn cái jiēdào tōngzhī.
We've received no official information about it up to now.	直到现在我们还没有接到正式通知。zhídào xiànzài wǒmen hái méiyǒu jiēdào zhèngshì tōngzhī.
sit by the window	挨着窗口坐āi zhe chuāngkǒu zuò
The two shops are next to each other.	那两家铺子紧挨着。 Nà liǎng jiā pùzi jǐn āi zhe. Don't push. Go in one by one.
He lives somewhere around here. Try to find him by going from door to door.	他就住在这一带, 你挨着门找找。 Tā jiù zhù zài zhè yīdài, nǐ āi zhe mén zhǎo zhǎo.
It isn't my turn yet, is it?	还没挨到我吧？ Hái méi āi dào wǒ ba？
easy to get along with	容易相处 Róngyì xiāng chǔ
They get along quite well.	他们俩处得很好。 Tāmen liǎ chǔ de hěn hǎo.
This fellow is hard to get along with.	这个人不好处。 Zhège rén bù hǎo chǔ.
Where do you come among your brothers and sisters? -I'm the third.	你行几？——我行三。 Nǐ háng jǐ？ —— wǒ háng sān.
What's his line?	他干哪行？ Tā gàn nǎ háng？
love whatever job one takes up	干一行爱一行 gàn yī háng ài yī háng
receive foreign guests	接待外宾 jiēdài wàibīn
The museum is open from 9 a.m. to 5 p.m.	博物馆从上午九点到下午五点接待观众。 Bówùguǎn cóng shàngwǔ jiǔ diǎn dào xiàwǔ wǔ diǎn jiēdài guānzhòng.
This hotel can accommodate 800 guests.	这饭店可以接待八百位客人。 Zhè fàndiàn kěyǐ jiēdài bābǎi wèi kèren.
He did not agree until I had talked to him for a long time.	我劝说了半天, 他才肯了。 Wǒ quàn shuō le bàntiān, tā cái kěn le.
Is he willing to come? - Yes.	他肯不肯来？——肯。 Tā kěn bù kěn lái？ —— kěn.
Can't you be quiet for a moment?	你肯安静一会儿吗？ Nǐ kěn ānjìng yīhuìr ma？
cut off the water supply	断水 duàn shuǐ
lose contact with headquarters	与指挥部的联系断了 yǔ zhǐhuībù de liánxì duàn le
give up (or quit) smoking	断烟 duàn yān
artificial leg	假腿 jiǎ tuǐ
bogus democracy; sham democracy	假民主 jiǎ mínzhǔ
phoney peace	假和平 jiǎ hépíng
insincere self-criticism	假检讨 jiǎ jiǎntǎo
He is a person of great moral integrity.	他骨头很硬。 Tā gǔtou hěn yìng.
I'd like to make an appointment with Mr. Wang, the manager.	我想跟王经理约个时间谈谈。 Wǒ xiǎng gēn wáng jīnglǐ yuē ge shíjiān tán tán.
We agreed to meet next Monday.	我们约好下星期一碰头。 Wǒmen yuē hǎo xià Xīngqīyī pèngtóu.
Please ask him to come.	请约他来。 Qǐng yuē tā lái.
I've invited Comrade Wang.	我已约了王同志。 Wǒ yǐ yuē le wáng tóngzhì.
make a deal	做成一笔买卖 Zuò chéng yī bǐ mǎimai
How was business today?	今天买卖怎么样? Jīntiān mǎimai zěnmeyàng？
He used to have a shop in the city.	他原先在城里有个买卖。 Tā yuánxiān zài chénglǐ yǒu ge mǎimai.
take sb.'s measurements	量身材 liáng shēncái /量尺寸 liáng chǐcun
take sb.'s temperature	量体温 liáng tǐwēn
tally with the actual situation; conform to reality	符合实际情况 fúhé shíjì qíngkuàng be in line with the current policy 符合当前政策 fúhé dāngqián zhèngcè
The founding of the People's Republic of China marked the beginning of a news historical period in our country.	中华人民共和国的成立, 标志着我国新的历史阶段的开始。 Zhōnghuá Rénmín Gònghéguó de chénglì, biāozhì zhe wǒguó xīn de lìshǐ jiēduàn de kāishǐ.
This cloth won't shrink when it's washed.	这种布下水不缩。 Zhèzhǒng bù xià shuǐ bù suō.
The enemy has drawn back.	敌人缩回去了。 Dírén suō huí qù le.
make reservations for seats in a restaurant, theatre, etc.	订座 dìng zuò
The others will be here in a minute.	其余的人马上就来。qíyú de rén mǎshàng jiù lái.
play with a child	逗孩子玩 dòu háizi wán
You're kidding!	别逗了。 Bié dòu le.
I'm afraid I can't shoulder such a responsibility.	我怕背不起这样的责任。 Wǒ pà bēi bù qǐ zhèyàng de zérèn.
He has great strength.	他劲儿大。 Tā jìnr dà.
This liquor is quite strong.	这酒劲儿大。 Zhè jiǔ jìnr dà
My temperature is down, but I'm still feeling weak.	我烧是退了, 可身上还是没劲儿。 Wǒ shāo shì tuì le, kě shēnshang hái shì méi jìnr.
You've got to get rid of your arrogant ways.	你这骄傲劲儿得好好改改。 Nǐ zhè jiāo'ào jìnr de hǎohāo gǎi gǎi.
See how happy he looks.	瞧他那高兴劲儿。 Qiáo tā nà gāoxìng jìnr.
Playing cards is no fun; let's go swimming.	打扑克没劲, 咱们去游泳吧。 Dǎ pūkè méi jìn, zánmen qù yóuyǒng ba.
The situation is getting better and better.	形势越来越好。xíngshì yuèláiyuè hǎo.
What office does she hold?	她担任什么职务？ Tā dānrèn shénme zhíwù？
We played chess by the light of a street lamp.	我们就着路灯下棋。 Wǒmen jiù zhe lùdēng xiàqí.
Eat your watermelon over the table.	你就着桌子吃西瓜。 Nǐ jiù zhe zhuōzi chī xīguā.
We'll take this opportunity to have a talk.	我们就这个机会谈谈。 Wǒmen jiù zhège jīhuì tán tán.
Make it anytime that suits you; I'm free anyway.	我反正有空, 就你的时间吧。 Wǒ fǎnzheng yǒu kòng, jiù nǐ de shíjiān ba.
He has peanuts with his drinks.	他用花生就酒。 Tā yòng huāshēng jiù jiǔ.
He has as many as 20 shirts.	光衬衫他就有二十件。 Guāng chènshān tā jiù yǒu èrshí jiàn.
I never said I knew any French.	我本来就不懂法语。 Wǒ běnlái jiù bù dǒng fǎ yǔ.
Even if you won't tell me, I'll know anyway.	你就不说, 我也会知道的。 Nǐ jiù bù shuō, wǒ yě huì zhīdao de.
Even if you get angry, it won't help.	你就生气也没用。 Nǐ jiù shēngqì yě méiyòng.
You must not look only at the surface of things.	你不能只看事情的表面。 Nǐ bù néng zhǐ kàn shìqing de biǎomiàn.
He seems very friendly on the surface.	他表面上好象很和气。 Tā biǎomiàn shàng hǎo xiàng hěn héqi.
He dashed into the burning house and rescued two children.	他冲进着火的房子, 救出了两个小孩。 Tā chōng jìn zháohuǒ de fángzi, jiù chū le liǎng ge xiǎohái.
make tea	冲茶 chōng chá
rinse the plates	把盘子冲一冲。 Bǎ pánzi chōng yī chōng.
develop a roll of film	冲胶卷 chōng jiāojuǎn
They pulled the rope so hard that it snapped.	他们太使劲, 把绳子拉折了。 Tāmen tài shǐjìn, bǎ shéngzi lā shé le.
Having lived among the herdsmen for years, he can have a true understanding of their thoughts and feelings.	他在牧民中间生活多年, 真能体会他们的思想感情。 Tā zài mùmín zhōngjiān shēnghuó duō nián, zhēn néng tǐhuì tāmen de sīxiǎng gǎnqíng.
I'll say a few words about my personal experience (or understanding).	谈谈我个人的体会。 Tán tán wǒ gèrén de tǐhuì.
The symposium enlightened me on two points.	参加了这次科学讨论会, 我有两点体会。 Cānjiā le zhè cì kēxué tǎolùnhuì, wǒ yǒu liǎng diǎn tǐhuì.
the height of a mountain	山的高度 shān de gāodù
be quick-witted; have a supple mind	脑筋灵活 nǎojīn línghuó
flexible and diversified forms of operation	灵活多样的经营方式 línghuó duōyàng de jīngyíng fāngshì
The comrades' explanation helped Lao straighten out his thinking.Zhang to	听了同志们这番解释,老张心里明亮了。 Tīng le tóngzhì men zhè fān jiěshì, lǎo zhāng xīnli míngliàng le.
turn the corner of a house	拐过墙角 guǎi guò qiángjiǎo
turn into an alley	拐进一条胡同 guǎi jìn yī tiáo hútòng
turn to the left	往左拐wǎng zuǒ guǎi
We can't get through here, let's turn back.	前面走不通了, 咱们拐回去吧。 Qiánmian zǒu bù tōng le, zánmen guǎi huíqu ba.
He limped along. or He walked with a limp.	他一拐一拐地走。 Tā yī guǎi yī guǎi de zǒu.
raise the curtain	把帘子挑起来 bǎ liánzi tiǎo qǐ lái
poke a fire	挑火 tiǎo huǒ
pick out a splinter	挑刺 tiǎo cì
Let's put all the cards on the table.	把问题挑开来说吧。 Bǎ wèntí tiǎo kāi lái shuō ba.
stir up trouble; sow discord	挑事 tiǎo shì
It was he who stirred up the quarrel.	这口舌是他挑起来的。 Zhè kǒushé shì tā tiǎo qǐ lái de.
His answer was simple and straightforward. or He gave a clear-cut reply.	他回答得很干脆。 Tā huídá de hěn gāncuì.
I'll be frank with you.	我干脆跟你说吧。 Wǒ gāncuì gēn nǐ shuō ba.
Make it snappy! or Be quick about it!	干脆一点嘛! gāncuì yīdiǎn ma!
Just say yes or no.	你干脆说"行"还是"不行"。 Nǐ gāncuì shuō "xíng" háishi "bùxíng".
She simply denied that such a thing had ever happened.	她干脆不承认有这回事。 Tā gāncuì bù chéngrèn yǒu zhè huí shì.
The food at our school is no good.	我们学校的伙食不好。 Wǒmen xuéxiào de huǒ•shí bù hǎo.
He speaks English and French with equal fluency.	他说英语和法语同样流利。 Tā shuō Yīngyǔ hé Fǎyǔ tóngyàng liúlì.
Go and see for yourself.	你亲自去看看。 Nǐ qīnzì qù kànkan.
The film vividly reflects the life of the present day college students.	影片生动地反映了当代大学生的生活。 Yǐngpiàn shēngdòng de fǎnyìng le dāngdài dàxuéshēng de shēnghuó.
vivid language	生动活泼的语言 shēngdòng huópo de yǔyán
It was a lively meeting.	这次会开得生动活泼。Zhè cì huì kāi de shēngdòng huópo.
I heartily sympathize with you. or I have every sympathy for you.	我很同情你。 Wǒ hěn tóngqíng nǐ.
Let's see the workshop first and then the nursery.	先看生产车间, 其次再参观托儿所。 Xiān kàn shēngchǎn chējiān, qícì zài cānguān tuō'érsuǒ.
The secondary problems will be taken care of easily now that the main problem has been solved.	首要的问题已经解决, 其次的问题就比较好办了。 Shǒuyào de wèntí yǐjing jiějué, qícì de wèntí jiù bǐjiào hǎo bàn le.
Content comes first, form second.	内容是主要的, 形式还在其次。 Nèiróng shì zhǔyào de, xíngshì hái zài qícì.
It took him only three days to learn to skate.	他三天工夫就学会了滑冰。 Tā sān tiān gōngfu jiù xuéhuì le huábīng.
(of actors, athletes, etc.) practise	练工夫 Liàn gōngfu
The acrobat's skill is really superb!	这位杂技演员可真有工夫! Zhè wèi zájì yǎnyuán kě zhēn yǒu gōngfu!
put in a lot of work	花了好大工夫 Huā le hǎo dà gōngfu
His girl-friend gave him the brush-off.	他的女朋友把他甩了。 Tā de nǚpéngyou bǎ tā shuǎi le.
The service has improved a lot.	服务态度有很大的改进。 Fúwù tàidu yǒu hěn dà de gǎijìn.
People must adapt their thinking to the changed conditions.	人们的思想必须适应已经变化了的情况。 Rénmen de sīxiǎng bìxū shìyìng yǐjing biànhuà le de qíngkuàng.
The good points of the novel may be summarized as follows.	这部小说的优点概括起来有以下几方面。 Zhè bù xiǎoshuō de yōudiǎn gàikuò qǐlai yǒu yǐxià jǐ fāngmiàn.
to sum up	概括起来说 gàikuò qǐlai shuō
to put it briefly	概括地说 gàikuò de shuō
Please give your views in broad outline.	请把你的看法概括地讲一讲。 Qǐng bǎ nǐ de kànfǎ gàikuò de jiǎng yī jiǎng.
I won't be taken in this time.	这回我可不上当啦! Zhè huí wǒ kě bù shàngdàng la! We're fools to have chosen this path; it's full of puddles. 走这条路可上当了, 尽是水坑。 Zǒu zhè tiáo lù kě shàngdàng le, jìn shì shuǐkēng.
We won't walk into that trap.	我们不上那个当。 Wǒmen bù shàng nàge dāng.
He's aged a lot and his appearance is beyond recognition.	他老多了, 模樣變得都認不出來了。 Tā lǎo duō le, múyàng biàn de dōu rèn bù chūlai le.
What did that person look like?	那人是什麼模樣？ Nà rén shì shénme múyàng？
The child takes after his mother.	這孩子的模樣像他媽媽。 Zhè háizi de múyàng xiàng tā māma.
The young lady is quite pretty.	這姑娘模樣兒真不錯。 Zhè gūniang múyàngr zhēn bù cuò.
Don't stop me; I must go.	别拦着我, 我一定得走。 Bié lán zhe wǒ, wǒ yīdìng děi zǒu. He was just about to speak when I stopped him. 他刚要说, 我把他给拦住了。 Tā gāng yào shuō, wǒ bǎ tā gěi lán zhu le.
A river blocked our way.	一道河拦住了我们的去路。 Yī dào hé lán zhu le wǒmen de qù lù.
He has quite a lot of friends.	他有好些個朋友。 Tā yǒu hǎoxiē ge péngyou.
I was a guest at an old friend's yesterday.	be a guest: 我昨天到一个老朋友家里去做客。 Wǒ zuótiān dào yī ge lǎopéngyou jiālǐ qù zuòkè.
He got into the character that he was playing.	他演这个角色很投入。 Tā yǎn zhège juésè hěn tóurù.
streamline (or simplify) overlapping administrative organizations	精简重叠的行政机构 jīngjiǎn chóngdié de xíngzhèng jīgòu
Stop fooling with that alarm clock.	你别弄闹钟了。 Nǐ bié nòng nàozhōng le.
prepare a meal; cook	弄饭 nòng fàn
I haven't got enough time. Will you please do it for me?	我来不及了, 你帮我弄弄吧。 Wǒ láibují le, nǐ bāng wǒ nòng ba.
His explanation only made me feel more puzzled than ever.	他这一说反把我弄糊涂了。 Tā zhè yī shuō fǎn bǎ wǒ nòng hútu le.
He got his clothes dirty.	他把衣服弄脏了。 Tā bǎ yīfu nòng zāng le. Certain questions have yet to be clarified. 有些问题还需要弄清楚。 Yǒuxiē wèntí hái xūyào nòng qīngchu.
Go and get some water.	你去弄点水来。 Nǐ qù nòng diǎn shuǐ lái.
play tricks	弄手段 nòng shǒuduàn
She does everything patiently.	她做任何事都耐心得很。 Tā zuò rènhé shì dōu nàixīn de hěn.
lose one's patience; be out of patience	失去耐心 Shīqù nàixīn
A lorry ran into our car and damaged it.	一辆卡车撞坏了我们的汽车。 Yī liàng kǎchē zhuàng huài le wǒmen de qìchē.
be knocked down by a truck	被卡车撞倒了 Bèi kǎchē zhuàng dǎo le
I tried to avoid him, but it was just my luck to bump into him.	我不想见他, 偏撞上他了。 Wǒ bù xiǎng jiàn tā, piān zhuàng shàng tā le.
try one's luck; take a chance	撞撞运气 zhuàng yùnqi
Her technique is not quite up to the mark.	她的技术还差点儿。 Tā de jìshù hái chàdiǎnr.
The quality of this cloth is fine, but the colour is not quite right. or The cloth isquite good except for the colour.	这块布料质量挺好, 就是颜色差点儿。 Zhè kuài bùliào zhìliàng tǐng hǎo, jiùshì yánsè chàdiǎnr.
This pen is not as good as that one.	这支笔比那支笔差点儿。 Zhè zhī bǐ bǐ nà zhī bǐ chàdiǎnr.
I almost missed the bus.	我差点儿没赶上车。 Wǒ chàdiǎnr méi gǎnshàng chē. The question was so difficult I almost failed to answer it. 那个问题可难了, 我差点儿没答上来。 Nà ge wèntí kě nán le, wǒ chàdiǎnr méi dá shànglai. You narrowly escaped getting a shock. 你差点儿(没)触电。 Nǐ chàdiǎnr (méi) chùdiàn.
doubtless; without a doubt; without question	毫无疑问 Háowú yíwèn Some people question his ability to do the job. 有人对他是否胜任这项工作提出疑问。 Yǒurén duì tā shì-fǒu shèngrèn zhè xiàng gōngzuò tíchū yíwèn.
You shouldn't shift the blame onto others.	你不应该把责任推到别人身上。 Nǐ bù yīnggāi bǎ zérèn tuī dào biéren shēnshang.
If anything goes wrong, you'll have to answer for it.	这事如果搞不好, 你要负责任。 Zhè shì rúguǒ gǎo bù hǎo, nǐ yào fù zérèn.
a window overlooking the street	临街的窗子 lín jiē de chuāngzi
This house looks out on a river.	这所房子临河。 Zhè suǒ fángzi lín hé.
I bought this book just before I left Beijing.	这本书是我临离开北京时买的。 Zhè běn shū shì wǒ lín líkāi Běijīng shí mǎi de.
Mix some sugar into the milk.	牛奶里加点糖调一下。 Niúnǎi lǐ jiā diǎn táng tiáo yīxià.
We've already packed and will leave tomorrow morning.	行李都打好了, 我们明天早上就动身。Xíngli dōu dǎ hǎo le, wǒmen míngtiān zǎoshang jiù dòngshēn.
crush to pieces	压碎 yā suì
crush to death	压死 yā sǐ
The fruit weighed the branches down.	果子把树枝压弯了。 Guǒzi bǎ shùzhī yā wān le. This box won't stand much weight. 这盒子怕压。 Zhè hézi pà yā.
drink some hot water to ease a cough	喝点热水把咳嗽压一压 Hē diǎn rèshuǐ bǎ késou yā yī yā
Don't you try to intimidate people by pinning labels on them.	别拿大帽子压人。 Bié ná dàmàozi yā rén.
Even a greater natural calamity cannot daunt us.	再大的自然灾害也压不垮我们。 Zài dà de zìrán zāihài yě yā bù kuǎ wǒmen.
This document was pigeonholed for quite some time.	这份公文压了不少时间。 Zhè fèn gōngwén yā le bùshǎo shíjiān.
Shelve this matter for a few days.	这事儿先压几天再说。 Zhè shìr xiān yā jǐ tiān zàishuō.
cut sth. into halves	切成两半 qiē chéng liǎng bàn
Let me know beforehand if you won't be going.	你要是不去, 事先打个招呼。 Nǐ yào shì bù qù, shìxiān dǎ ge zhāohu.
get one's luggage ready (formal)	摒挡行李 bìngdàng xíngli
the weakest link	最薄弱的一环 zuì bóruò de yī huán
save time	省时间 shěng shíjiān
save a lot of trouble	省掉不少麻烦 shěng diào bùshǎo máfan
I can't save much from my monthly wages.	我一个月省不下几个钱。 Wǒ yī ge yuè shěng bù xià jǐ ge qián.
These two words cannot be omitted.	这两个字不能省。 Zhè liǎng ge zì bù néng shěng.
do one's bit in building socialism	为建设社会主义尽一分力量 wèi jiànshè shèhuìzhǔyì jìn yī fēn lìliang
I'm not the only one who thinks this way.	不光是我才这样想。 Bù guāng shì wǒ cái zhèyàng xiǎng.
There are plenty of these herbs in the hills.	这种草药山上有的是。 Zhèzhǒng cǎoyào shān shàng yǒudeshì.
strike the table and pour out a stream of abuse	拍桌子大骂 pāi zhuōzi dà mà
I just manage to get by from day to day.	我是混一天算一天。 Wǒ shì hùn yī tiān suàn yī tiān.
This time he got exactly what he wanted.	这件事可如了他的意了。 Zhè jiàn shì kě rú le tā de yì le.
put one's hands in one's pockets	把双手插在口袋里 bǎ shuāng shǒu chā zài kǒudài lǐ
I'd like you to take something to him.	我想托你给他捎点东西。 Wǒ xiǎng tuō nǐ gěi tā shāo diǎn dōngxi.
Whether he comes or not, we'll have to do it.	不论他来不来, 我们都得做。bùlùn tā lái bù lái, wǒmen dōu děi zuò.
This chap can't keep anything to himself.	这人肚子里藏不住话。 Zhè rén dùzi lǐ cáng bù zhù huà.
Don't push. Go in one by one.	别挤了!一个挨一个进去。 Bié jǐ le! Yī ge āi yī ge jìnqu.
